Neki tekst
##########
Neki tekst
##########
Neki tekst
##########
Neki tekst
##########
Neki tekst
##########
Neki tekst
##########
Neki tekst
##########
Neki tekst
##########
Neki tekst
##########
Neki tekst
##########
Neki tekst
##########
Neki tekst
##########
Neki tekst
##########
